*** Darwin 14x12 ***
Turn = 0.
  012345678901
0 ..f..fh.....
1 ...f........
2 ............
3 ............
4 ...........r
5 ........f..r
6 .t.f........
7 ..........t.
8 ............
9 ....f.r.r...
0 ..h.f......f
1 ....r.......
2 r...........
3 .....f......

Turn = 8.
  012345678901
0 ..f..fh.r...
1 ...f........
2 ...........r
3 ............
4 ............
5 ....r.......
6 .t.fr.......
7 ..........t.
8 r...........
9 ....f.......
0 ....f......f
1 ............
2 ............
3 rr...f...r..

*** Darwin 10x14 ***
Turn = 0.
  01234567890123
0 ........h.....
1 ..............
2 .h..h....h....
3 ..h....r.f....
4 ..............
5 t.....t.....h.
6 .t............
7 h......h......
8 ..h....r...r..
9 ...f..........

Turn = 6.
  01234567890123
0 ..h...........
1 ..............
2 ..hhh.........
3 hr.......f....
4 ..............
5 t.....th......
6 tt............
7 .h............
8 .....r........
9 ...frr........

Turn = 12.
  01234567890123
0 r.............
1 r.............
2 ..hhh.........
3 .........f....
4 .....r........
5 tt....tt......
6 tt............
7 t.............
8 rr............
9 r.............

*** Darwin 10x12 ***
Turn = 0.
  012345678901
0 ............
1 ...t...h....
2 ..r.........
3 ..fr........
4 ...hth......
5 .r..........
6 .f.........h
7 ..h.r.......
8 ........ttt.
9 ........r...

Turn = 5.
  012345678901
0 ............
1 ...tt.......
2 r...r..r....
3 ..f.r...r...
4 .....t......
5 ............
6 .f..........
7 ............
8 ........ttt.
9 ..hrr......h

Turn = 10.
  012345678901
0 ..r.........
1 ...tt.......
2 ....t......r
3 ..f.t......r
4 .....t......
5 ....r.......
6 .f..........
7 ............
8 ........ttt.
9 ..rr.......h

Turn = 15.
  012345678901
0 ...t.......r
1 ...tt.......
2 ....t.......
3 ..f.t.......
4 ....tt......
5 ............
6 .f..........
7 r..........r
8 ........ttt.
9 .......r...h

*** Darwin 10x11 ***
Turn = 0.
  01234567890
0 ..r.h.....t
1 .....f.....
2 .tt.....t..
3 .....h.....
4 h..........
5 .f....f....
6 ....r......
7 .....t.....
8 ...h..f....
9 ...h...f.h.

Turn = 10.
  01234567890
0 ...........
1 .....f..r..
2 .tt......rr
3 ........r.r
4 .........h.
5 .f....f....
6 .....t.....
7 .....t.....
8 ......f....
9 ...h..hf..h

*** Darwin 10x10 ***
Turn = 0.
  0123456789
0 t.r....t..
1 ..........
2 ...f......
3 f.....frf.
4 f.........
5 ...f......
6 .f....r.f.
7 .......t..
8 .....rrr.r
9 ..........

Turn = 9.
  0123456789
0 .......r..
1 ..........
2 r.r....r..
3 r..r....f.
4 rr...r....
5 ...f......
6 .f........
7 r......r..
8 ..........
9 .rr....r.r

Turn = 18.
  0123456789
0 .........r
1 ..........
2 .....r....
3 ..rr....f.
4 rr........
5 r.........
6 r........r
7 .rrrr.....
8 r..r...r..
9 ......r...

*** Darwin 14x14 ***
Turn = 0.
  01234567890123
0 .r..h.........
1 ..h...........
2 ..............
3 .........hhr..
4 h.h...........
5 ....f.........
6 ............h.
7 ..............
8 .......ffh...h
9 ..............
0 r........t....
1 .f............
2 ..r..t.......t
3 ..............

Turn = 9.
  01234567890123
0 .........hh...
1 ...........h..
2 ..............
3 .............h
4 r.r...........
5 ..r.f.........
6 ...h..........
7 ..............
8 .......ffh....
9 ..............
0 .........t....
1 .f.........r.t
2 ..........r.rt
3 ..h...........

*** Darwin 11x15 ***
Turn = 0.
  012345678901234
0 ...r...........
1 .....r.........
2 .rf...r.......f
3 .......ff..t..h
4 ...............
5 ..r............
6 .......t.....f.
7 ..t..t....rh...
8 ...............
9 ......h........
0 ...............

Turn = 6.
  012345678901234
0 ..r......r.....
1 r..............
2 .....r........f
3 .......ff..r...
4 ...........rr..
5 ...............
6 r......t.....f.
7 ..t..tt........
8 ...............
9 ...............
0 ......h...r....

Turn = 12.
  012345678901234
0 ...........r..r
1 ...............
2 ...........r..f
3 rr.....ff......
4 ...............
5 ..............r
6 .......t.....f.
7 ..t..tt........
8 ...............
9 .......r.......
0 .r...r......r..

Turn = 18.
  012345678901234
0 .....r...r...r.
1 ..............r
2 ...............
3 .......ff......
4 ...............
5 ...............
6 .......t.....f.
7 ..t..ttt.......
8 ...............
9 rr............r
0 .r.....r.....r.

*** Darwin 14x15 ***
Turn = 0.
  012345678901234
0 .r.............
1 .....tr.......t
2 .f.........hh..
3 .............h.
4 ...............
5 .......f.......
6 ...............
7 hf.............
8 ......h.....t..
9 ...............
0 .f.h...........
1 hhf............
2 ...............
3 ......f........

Turn = 7.
  012345678901234
0 h.r............
1 .....tt.......t
2 .f....t.......t
3 ...h...........
4 h..............
5 .......f.......
6 ...............
7 .f.............
8 h...........t..
9 ...............
0 .f...........h.
1 .hf............
2 ...............
3 ......f........

Turn = 14.
  012345678901234
0 h..h.....r.....
1 h....tt.......t
2 .f....t.......t
3 ...............
4 ...............
5 .......f.......
6 ...............
7 .f.............
8 h...........t..
9 ...............
0 .f.............
1 .hf............
2 ...............
3 ......f......h.

*** Darwin 14x12 ***
Turn = 0.
  012345678901
0 .f..r.......
1 ..........h.
2 t.....rf....
3 ....h.f.....
4 .....f......
5 ............
6 ............
7 ....r.f.....
8 ...........t
9 ............
0 ..h....t..f.
1 .h......h...
2 .f..........
3 ..........h.

Turn = 5.
  012345678901
0 .f......r...
1 ............
2 t..r...f....
3 h.r.........
4 .....fr.....
5 ..h.........
6 ..........h.
7 ............
8 ...........t
9 .....r......
0 .......tt.f.
1 .h..........
2 .f..........
3 ..........h.

Turn = 10.
  012345678901
0 .fh...r.....
1 ...........r
2 r......f....
3 rr..........
4 .....f......
5 r...........
6 ............
7 ............
8 ...........t
9 ..........h.
0 .......tt.f.
1 .h..........
2 .f..........
3 .....r....h.

Turn = 15.
  012345678901
0 .fh........r
1 ............
2 ....r..f....
3 ............
4 .....f......
5 ............
6 ...........r
7 ............
8 rr.........t
9 ..........h.
0 r......tt.f.
1 .h..........
2 .f..........
3 r.........h.

*** Darwin 13x12 ***
Turn = 0.
  012345678901
0 .......t....
1 ............
2 ..r....r....
3 .....t...r..
4 ......t.....
5 ............
6 .......h....
7 ...tf.......
8 ...r......h.
9 ......f..t..
0 ...h......r.
1 ......t..h..
2 f...h....f..

Turn = 10.
  012345678901
0 ....r..t....
1 ..........r.
2 ............
3 .....t.....r
4 r.....tt....
5 .......t....
6 ............
7 ............
8 ............
9 ......f..tt.
0 r...........
1 ..r...tt....
2 f....r..hf..

*** Darwin 12x12 ***
Turn = 0.
  012345678901
0 ....f.h..r..
1 ............
2 ............
3 ....h...r...
4 .......t....
5 ....ff......
6 ..t.........
7 ..tr.....t..
8 .....f......
9 ......r.....
0 h..t.....r..
1 ..f.......h.

Turn = 6.
  012345678901
0 ....f.r.....
1 ...r.......r
2 ............
3 .......r....
4 ....h..t....
5 ....ff......
6 ..t.........
7 ..t......t..
8 .....f......
9 ............
0 h..t.......r
1 ..fr.......r

Turn = 12.
  012345678901
0 .....r......
1 ............
2 ............
3 ....rr......
4 ....h.......
5 ....ff......
6 ..t........r
7 ..t......t.r
8 .....f.r...r
9 ............
0 h..t...r....
1 ..tt........

*** Darwin 13x13 ***
Turn = 0.
  0123456789012
0 ............h
1 r............
2 .h...........
3 .............
4 .r..f........
5 .............
6 ..f...r......
7 ....h........
8 r...r..t.h...
9 .......r.....
0 .....t.......
1 ..t...r......
2 .t.t.....t...

Turn = 6.
  0123456789012
0 r...r.......h
1 .............
2 .............
3 .............
4 ....f........
5 ...r.........
6 .............
7 rrr.rr.......
8 .....h.......
9 ...........r.
0 .r...t.......
1 ..t..........
2 .t.rr....t...

Turn = 12.
  0123456789012
0 ...r......r.h
1 .....r.......
2 ....r........
3 .............
4 .r...........
5 ............r
6 r...r........
7 .............
8 h............
9 .............
0 .t...t.......
1 .t...r.......
2 rtr.....rt...

Turn = 18.
  0123456789012
0 .r.rr........
1 r...........r
2 r............
3 ...........rr
4 .............
5 r............
6 .............
7 .............
8 .............
9 .............
0 .t...t......r
1 tt...t.......
2 ttt........r.

*** Darwin 13x10 ***
Turn = 0.
  0123456789
0 .h...t..t.
1 .......ft.
2 ..........
3 ..........
4 ...r..r..r
5 ..........
6 ..........
7 ........h.
8 .....t....
9 f........t
0 ...r.r....
1 .r.....t..
2 ........t.

Turn = 6.
  0123456789
0 .h...t..t.
1 .......tt.
2 ..........
3 ..........
4 ...r.....r
5 .....r....
6 .........r
7 ..r.......
8 .........r
9 f.r.......
0 .......r.r
1 ......r...
2 ........t.

Turn = 12.
  0123456789
0 .h..rr..t.
1 .....r.tt.
2 ..........
3 ..........
4 r......r..
5 ..........
6 r.........
7 ..........
8 ........r.
9 .........r
0 .........r
1 ........r.
2 .r......tr

*** Darwin 11x10 ***
Turn = 0.
  0123456789
0 t.....r.tf
1 ..........
2 .....f....
3 ........t.
4 .....f....
5 h..f.....r
6 f.......f.
7 ..........
8 t...r.....
9 .fh......r
0 .r........

Turn = 7.
  0123456789
0 tt......tt
1 ..........
2 .....f...r
3 ........t.
4 .....f....
5 ..hrr.....
6 f.......f.
7 ..........
8 r.........
9 r.r.....h.
0 .r........

Turn = 14.
  0123456789
0 tt...r....
1 ..........
2 ..r..f..r.
3 r.......r.
4 .....f...r
5 ........h.
6 ....r...f.
7 ..........
8 ..........
9 ......r..h
0 .rr....r..

*** Darwin 14x15 ***
Turn = 0.
  012345678901234
0 .....tr........
1 ......fr..t....
2 ..............f
3 ....r..........
4 .t.....rr......
5 ...............
6 .............f.
7 r..f...t.....t.
8 ...............
9 ...............
0 ..........r....
1 ...t...........
2 ...........rt..
3 ...............

Turn = 10.
  012345678901234
0 ..r..t.........
1 ......f..tt...r
2 ..............f
3 ...............
4 .ttt...........
5 ...............
6 .............t.
7 ...f...t.....t.
8 ...............
9 ...............
0 ...............
1 ...tt..........
2 ............t..
3 ....rr.........

*** Darwin 15x12 ***
Turn = 0.
  012345678901
0 .t.....h....
1 ........h...
2 ............
3 .....r......
4 ...r......f.
5 .........r..
6 ......t.....
7 ...r..h.....
8 ............
9 ..........f.
0 ............
1 ......r.....
2 ............
3 t..f........
4 ..tt...f..f.

Turn = 10.
  012345678901
0 rr.........h
1 h.r.........
2 ............
3 ............
4 ..........f.
5 ............
6 ......t.....
7 r.....t.....
8 ............
9 ..........f.
0 ............
1 ............
2 ...........r
3 t..r...r....
4 ..t.r..f..f.

*** Darwin 14x10 ***
Turn = 0.
  0123456789
0 .f......t.
1 ....h.....
2 ......h...
3 ..........
4 ..........
5 ....t..t..
6 tt......f.
7 ..........
8 .....f....
9 .t........
0 ..r..f.rt.
1 .......t..
2 .h.......t
3 ...f......

Turn = 5.
  0123456789
0 .f......t.
1 h.........
2 .........h
3 ..........
4 ..........
5 ..r.t..t..
6 tt......f.
7 ..........
8 .....f....
9 .t........
0 .....f..t.
1 .........t
2 .........t
3 .h.f...r..

Turn = 10.
  0123456789
0 .fr.....t.
1 h.........
2 .........h
3 ..........
4 ..........
5 ....t..t..
6 tt......f.
7 ..........
8 .....f....
9 .t........
0 .....f..t.
1 .........t
2 .........t
3 .h.f.....t

Turn = 15.
  0123456789
0 .f....r.t.
1 h.........
2 .........h
3 ..........
4 ..........
5 ....t..t..
6 tt......f.
7 ..........
8 .....f....
9 .t........
0 .....f..t.
1 .........t
2 .........t
3 .h.f.....t

*** Darwin 14x15 ***
Turn = 0.
  012345678901234
0 r..............
1 .......h.....r.
2 .h.....f..f..t.
3 ..h............
4 .......t...tt..
5 .............r.
6 ...............
7 ...............
8 r............rh
9 ......r........
0 .......t.......
1 ........h......
2 ...............
3 .........t..t..

Turn = 8.
  012345678901234
0 ......r.r......
1 .....r.........
2 r.....hf..f..t.
3 ..............r
4 .r.....t...tt..
5 .....r.........
6 ...............
7 ...............
8 ...............
9 ...............
0 r......tt......
1 ...............
2 ...............
3 .........t..rr.

Turn = 16.
  012345678901234
0 .r...........r.
1 ..............r
2 ......hr..f..tt
3 r......r.......
4 r.......r..tt..
5 ...............
6 ...............
7 ...............
8 ...............
9 ...............
0 .......tt......
1 .........r.....
2 r..............
3 ..........r..r.

*** Darwin 12x13 ***
Turn = 0.
  0123456789012
0 .............
1 ....f........
2 .............
3 h.......ttr..
4 .............
5 ............h
6 .............
7 ..hh.........
8 ......t..r...
9 ...ft.....r..
0 ..f........h.
1 ..r.h...t.t..

Turn = 7.
  0123456789012
0 ............r
1 ....f........
2 .............
3 ........tt...
4 .............
5 ............h
6 h............
7 h.........h..
8 ......t......
9 ...tt....r...
0 ..f...rr.....
1 ......rr.r..r

Turn = 14.
  0123456789012
0 .............
1 ....f........
2 .............
3 ........tt...
4 .......r.t..r
5 ............r
6 h............
7 h...........r
8 ......t.....r
9 ...tt.......r
0 ..ttt........
1 r............

*** Darwin 12x11 ***
Turn = 0.
  01234567890
0 .h.........
1 ....f......
2 .ht........
3 .t.....f.t.
4 r.......f..
5 .f.f.......
6 ..t..f.....
7 ..r........
8 r..h...r...
9 ...........
0 .........f.
1 h..........

Turn = 7.
  01234567890
0 rh.........
1 r...f......
2 ..t........
3 .t.....f.t.
4 ........f..
5 .f.t.......
6 ..tt.f.....
7 ..t........
8 r..........
9 ...........
0 .........f.
1 ....rr.....

Turn = 14.
  01234567890
0 .h.r.......
1 r..........
2 r.t........
3 .t..r..f.t.
4 .....r..f..
5 .f.trr.....
6 ..tt.......
7 ..t........
8 ...........
9 ...........
0 .........f.
1 ...........

*** Darwin 12x10 ***
Turn = 0.
  0123456789
0 ..t.......
1 ..r.......
2 ...rf.....
3 .t.......t
4 .....r....
5 t......h..
6 ..........
7 ..........
8 ..hr.....f
9 ...t.....h
0 ..t....tr.
1 .h..r....h

Turn = 6.
  0123456789
0 ......rr..
1 ......r...
2 ...r....r.
3 .t.r.....t
4 t.........
5 t.........
6 ..........
7 ..........
8 .........f
9 ..tt.....h
0 ..t....tt.
1 rr.......h

Turn = 12.
  0123456789
0 ..r......r
1 .........r
2 r.......r.
3 tr.......t
4 t.........
5 rr........
6 r.........
7 ..........
8 .........f
9 ..tt.....h
0 ..t....tt.
1 .........h

*** Darwin 14x14 ***
Turn = 0.
  01234567890123
0 .....t........
1 r.............
2 h.....r.......
3 ...r..........
4 ....r........h
5 ..............
6 ......f.......
7 f.............
8 ...........r..
9 ...f......t...
0 .....t....th..
1 ...........r..
2 .......h..f...
3 h.............

Turn = 5.
  01234567890123
0 .....t........
1 ...r..........
2 ..rr..........
3 ..............
4 .........r....
5 ..............
6 ......f.......
7 f.............
8 ...r..........
9 ...f......tt.h
0 .....t....tt..
1 ......r.......
2 ..h.......f...
3 h.............

Turn = 10.
  01234567890123
0 .....t........
1 .....t........
2 ........r.....
3 ..............
4 .............r
5 ..............
6 ......f.......
7 f.r...........
8 ..............
9 ..........tt..
0 r...rt....tt..
1 .r............
2 h.........f...
3 h............h

Turn = 15.
  01234567890123
0 .....t........
1 .....t........
2 .............r
3 ..............
4 ..............
5 .....r........
6 ......f.......
7 fr............
8 ..............
9 ..........tt.r
0 r.......r.tt..
1 ..............
2 r.r.......f...
3 ..r..........h

Turn = 20.
  01234567890123
0 .....t......r.
1 .....t........
2 .r...t........
3 ..............
4 ..............
5 ..............
6 r.....f.......
7 ..............
8 r.............
9 ..........tt..
0 .........ttt..
1 ..............
2 ......r...f..r
3 ...r...r....r.

*** Darwin 14x12 ***
Turn = 0.
  012345678901
0 ............
1 ............
2 .fh....t....
3 ......f.....
4 ...r.r......
5 ........r...
6 ..h....h...h
7 ............
8 ..........r.
9 ............
0 ......f.....
1 ......t.....
2 ...t.......r
3 ...t....f...

Turn = 8.
  012345678901
0 ..h.........
1 ............
2 rf....tt....
3 ......ft....
4 ............
5 ............
6 ............
7 ............
8 ..r.........
9 ...........r
0 ......t.....
1 ...r..t.....
2 ...r........
3 ...r....rr.h

Turn = 16.
  012345678901
0 ..h.........
1 ............
2 .f....tt....
3 r.....tt....
4 r...........
5 ............
6 ............
7 ............
8 .....r......
9 ......r.....
0 .........r..
1 .....r......
2 ....r...r...
3 r..r.....r..

*** Darwin 12x11 ***
Turn = 0.
  01234567890
0 ...........
1 ..t........
2 .h.rfh.....
3 ...........
4 ........f.f
5 ...........
6 .....r.t...
7 f...f......
8 ...........
9 r..r.r...t.
0 hr........r
1 ........r..

Turn = 10.
  01234567890
0 ...........
1 ..tt.......
2 r..rf...r..
3 r..........
4 r....r....f
5 ...........
6 .......t...
7 ....f......
8 ....r......
9 ....r....tt
0 ...........
1 r..r.r.....

*** Darwin 13x11 ***
Turn = 0.
  01234567890
0 .......h...
1 ...........
2 fr.........
3 ........rr.
4 ......t....
5 h.....ft...
6 ......f....
7 ..r...fh..r
8 ...........
9 .t........f
0 ...........
1 .h.........
2 .fr........

Turn = 7.
  01234567890
0 .......h..r
1 ...........
2 f..........
3 ..r........
4 ......t....
5 .....ttt...
6 ......tt...
7 ..r...t....
8 r......r...
9 ..r........
0 r..........
1 r..........
2 r.........r

Turn = 14.
  01234567890
0 .......h...
1 ...........
2 f..........
3 ...........
4 ......t....
5 .....ttt...
6 ......tt..r
7 r....tt...r
8 r..........
9 ....r....r.
0 ....r..r...
1 .......r...
2 ...........

*** Darwin 10x15 ***
Turn = 0.
  012345678901234
0 ...f...ft....h.
1 ....h..........
2 ...h...........
3 r.............f
4 ...............
5 ...............
6 .............t.
7 ...t....f....r.
8 ....f........tf
9 .r..t...f..t...

Turn = 8.
  012345678901234
0 ...f...ttt.....
1 h..............
2 ...............
3 ..............f
4 ...............
5 ...............
6 ...t.........t.
7 ...t....f....t.
8 ....t........tt
9 r.r.t...f..t...

Turn = 16.
  012345678901234
0 ...f...ttt.....
1 h..............
2 ...............
3 ....r.........f
4 ...............
5 ..r............
6 ...t.........t.
7 ...tt...f....t.
8 .............tt
9 r.......f..t...

*** Darwin 15x14 ***
Turn = 0.
  01234567890123
0 ..........r..r
1 f.......f.....
2 .....t........
3 ..............
4 ..h...........
5 ...ft.........
6 ..............
7 ..............
8 .h............
9 .ft.....t..t..
0 h....h........
1 ..............
2 ....r..t..r...
3 ...........r.r
4 ..............

Turn = 5.
  01234567890123
0 ..............
1 f.......f....r
2 .....t........
3 ..............
4 h.............
5 ...tt.....r...
6 ..............
7 ....r.....r...
8 ......h......r
9 .tt.....t..t..
0 ..........h...
1 ..............
2 .......t......
3 ..............
4 h.......r.....

Turn = 10.
  01234567890123
0 ..............
1 f.......f.....
2 .....t........
3 ..............
4 h............r
5 ...tt........r
6 ....t........r
7 .............r
8 ........t.....
9 .tt.....t..t..
0 .............h
1 ..............
2 .......t......
3 ..............
4 h..r..........

Turn = 15.
  01234567890123
0 ..............
1 f.......f....r
2 .....t.......r
3 ..............
4 h.............
5 ...tt.........
6 ....t.........
7 ..............
8 ........t....r
9 .tt.....t..t.r
0 .............r
1 ..............
2 .......t......
3 .r............
4 r.............

Turn = 20.
  01234567890123
0 ..............
1 f.......f.r...
2 .....t.......r
3 ..............
4 h.............
5 ...tt.........
6 ....t........r
7 .............r
8 ........tr....
9 rtt.....t..t..
0 .t............
1 ..............
2 .......t......
3 ..............
4 ..............

*** Darwin 12x15 ***
Turn = 0.
  012345678901234
0 ...............
1 ......t....h...
2 ...............
3 .t...........t.
4 ....t.r........
5 ...r.........t.
6 .h....hh....rr.
7 ..............r
8 ..r............
9 .f....t....h...
0 ...............
1 .........f.....

Turn = 8.
  012345678901234
0 .............rr
1 ......tt.......
2 .......t.......
3 .tt.....r......
4 r..............
5 ...........r...
6 h..............
7 ...............
8 ......t........
9 .f....t......r.
0 ....r..........
1 .........f.rr..

*** Darwin 12x15 ***
Turn = 0.
  012345678901234
0 ..........f....
1 t....f........t
2 .h......th...f.
3 ............r..
4 ......f........
5 ..........f....
6 ...............
7 ..........t....
8 h.......ht.....
9 h.r...h........
0 ...............
1 ......f........

Turn = 10.
  012345678901234
0 ..r.......f....
1 t....f........t
2 .......tt...hf.
3 ........t......
4 ......f........
5 ..........f....
6 ...............
7 ..........t....
8 ........tt.....
9 ..............h
0 h..............
1 h.....f........

*** Darwin 12x14 ***
Turn = 0.
  01234567890123
0 h.............
1 .........t....
2 ..r...t......r
3 .h............
4 .rh.h.r....f..
5 .........h....
6 ..........f..t
7 .h............
8 ............t.
9 ..............
0 ..............
1 ...r.....r....

Turn = 5.
  01234567890123
0 .r...h........
1 .........t....
2 .h....t..t....
3 h.....t.......
4 ...........f..
5 ..............
6 .........rf..r
7 ..r...........
8 ............tr
9 ..h.h.........
0 ..............
1 ........r.....

Turn = 10.
  01234567890123
0 .h....r...h...
1 .........t....
2 ......t..r....
3 h.....t..r....
4 ...........f..
5 ..............
6 ..........f...
7 ..............
8 ............tt
9 ..............
0 ..r...........
1 ...rh.......rr

Turn = 15.
  01234567890123
0 .h.........r.h
1 .........t....
2 ......t..t....
3 h.....t..t....
4 ...........f..
5 ..............
6 ..........f..r
7 .............r
8 r...........t.
9 ..............
0 ..............
1 .....r..r....r

*** Darwin 13x13 ***
Turn = 0.
  0123456789012
0 ......f..r...
1 .............
2 .r..hr.t.....
3 ......h....f.
4 ..........r..
5 .............
6 ........tf...
7 ...h...r.....
8 ............f
9 .............
0 .............
1 ......f..r.f.
2 ........h....

Turn = 8.
  0123456789012
0 ....r.r.....r
1 .........r...
2 r.....tt.....
3 ...........f.
4 .............
5 ............r
6 ........tt...
7 h............
8 ............f
9 ...........r.
0 .....r....r..
1 ......f......
2 h............

Turn = 16.
  0123456789012
0 rr...r......r
1 ...........r.
2 ......tt..rr.
3 ...........r.
4 .............
5 r............
6 ........tt...
7 .............
8 ............f
9 .............
0 r............
1 ......f......
2 rr...........

*** Darwin 13x14 ***
Turn = 0.
  01234567890123
0 .r...f.......t
1 ...h...f......
2 h...f.........
3 ..........r...
4 ............t.
5 ..h.....t.....
6 .....r........
7 ..............
8 f....h........
9 ..............
0 ....h.....r...
1 ..............
2 f..........f..

Turn = 9.
  01234567890123
0 h.h..........t
1 ......hf......
2 ....r.........
3 r.............
4 ....rr......t.
5 ........t.....
6 ..............
7 ..............
8 fh............
9 ..............
0 .r............
1 ..............
2 f...h.....rf..

*** Darwin 10x12 ***
Turn = 0.
  012345678901
0 ...........h
1 ..t.........
2 ......t...f.
3 ....h..f....
4 ......f.hr..
5 f...........
6 ...ftf...t..
7 ............
8 ..ht........
9 .r.........f

Turn = 6.
  012345678901
0 ....h......h
1 ..t.....r...
2 ......r...f.
3 .r....rr....
4 .......r....
5 f...........
6 ...ttt...t..
7 ............
8 ..tt........
9 ...........f

Turn = 12.
  012345678901
0 ...rrr....rr
1 ..tr........
2 ..........f.
3 .r.........r
4 ............
5 f...........
6 ...ttt...t..
7 ............
8 ..tt........
9 ...........f

*** Darwin 10x13 ***
Turn = 0.
  0123456789012
0 .............
1 ...........h.
2 .h.......r.f.
3 ....r..h...h.
4 .......h....t
5 .............
6 ....rr.r...t.
7 .............
8 h.....h....hr
9 ........t....

Turn = 7.
  0123456789012
0 .....r.......
1 ......h....h.
2 h..........f.
3 ...........r.
4 ...........rr
5 ...........rt
6 ..........rh.
7 .............
8 ..........r..
9 h.r.r..ht....

Turn = 14.
  0123456789012
0 r.....h......
1 ...........hr
2 h..........f.
3 .............
4 .............
5 ..r.r....r.rr
6 ...r.........
7 .............
8 ...........r.
9 r...r..ttt...

*** Darwin 14x11 ***
Turn = 0.
  01234567890
0 .f.........
1 .t..h......
2 .......t.f.
3 .t.........
4 .........t.
5 .t.........
6 ....r.f..f.
7 .........f.
8 ....t.h....
9 ..r..f.f...
0 ....r......
1 ...........
2 ...........
3 .....f.....

Turn = 8.
  01234567890
0 .t..h......
1 .t.........
2 .......t.f.
3 rt.........
4 .........t.
5 .t.........
6 ......f..f.
7 .........f.
8 ....tt.....
9 ....t..f...
0 ...........
1 ...........
2 ....r......
3 r......r...

Turn = 16.
  01234567890
0 tt..h......
1 .t.........
2 .......t.f.
3 .t.........
4 .........t.
5 .t.........
6 ......f..f.
7 r........f.
8 ....tt.....
9 r...t..f..r
0 ...........
1 ...........
2 ...........
3 ...........

*** Darwin 11x14 ***
Turn = 0.
  01234567890123
0 ..............
1 ..............
2 ...f.......r..
3 .............t
4 h..r.......t..
5 ..h.h.........
6 ....f...h.....
7 t..t.r......f.
8 ......r.hh....
9 ..t......hh...
0 ..............

Turn = 8.
  01234567890123
0 ..h.h.........
1 ..............
2 ...f......r...
3 ..............
4 .......h...t..
5 ..............
6 t...f.........
7 t........r..fr
8 .h.......h....
9 r.tt.....hh...
0 ........h.....

Turn = 16.
  01234567890123
0 ..h.h.........
1 ............r.
2 ...rr.........
3 ..............
4 ..........tt..
5 .............r
6 t...f.........
7 r.............
8 r.r......h....
9 .r.t.....hh...
0 ........h..r..

*** Darwin 15x14 ***
Turn = 0.
  01234567890123
0 .t...f........
1 t.............
2 r...........t.
3 ..............
4 r.............
5 .....t........
6 .........r....
7 .............h
8 ..............
9 ......r.......
0 r.............
1 ...........r..
2 ...t....t.....
3 h.rf.........t
4 ..........t...

Turn = 6.
  01234567890123
0 .t...f........
1 t............h
2 t...........t.
3 t.............
4 r.............
5 .....t........
6 ..............
7 .............r
8 ..............
9 r.............
0 ..............
1 ..............
2 ...t....t.....
3 ..tt.........t
4 ......r...rr..

Turn = 12.
  01234567890123
0 .t...f.......h
1 t.............
2 t...........t.
3 t.............
4 ....r.........
5 .....t........
6 ..............
7 ..............
8 ...........r..
9 ..............
0 ..............
1 ..............
2 ...t....t....r
3 ..tt.........r
4 r...........rr

Turn = 18.
  01234567890123
0 .t...f.......h
1 t.............
2 t..........rt.
3 t.............
4 ..........r...
5 .....t........
6 ..............
7 ..............
8 .............r
9 ..............
0 ..............
1 ............r.
2 r..t....t.....
3 ..tt...r.....r
4 ..............

*** Darwin 11x10 ***
Turn = 0.
  0123456789
0 ...f....f.
1 .h....r...
2 ..........
3 ..........
4 ..........
5 .f.....r..
6 .f........
7 .....rr...
8 h..h..t..t
9 ..rt......
0 .t.f.r....

Turn = 8.
  0123456789
0 rh.f..r.f.
1 ..r.......
2 ..........
3 ..........
4 ..........
5 .f........
6 .f........
7 ..........
8 h..t..t..t
9 ...t......
0 .t.ttt...r

*** Darwin 14x10 ***
Turn = 0.
  0123456789
0 .....r.r..
1 .......r..
2 ....t.....
3 ....r.f...
4 ......f..h
5 .........t
6 ......f...
7 .........t
8 ..........
9 r........h
0 .....h....
1 ....r...f.
2 .........r
3 .....h....

Turn = 6.
  0123456789
0 .......r.r
1 ..........
2 ....t.....
3 ....t.f..r
4 r.....f..t
5 .........t
6 ......f...
7 .........t
8 .........t
9 ..........
0 r.........
1 ........f.
2 .....h....
3 .....rr...

Turn = 12.
  0123456789
0 .rr.......
1 .........r
2 ....t.....
3 ....t.fr..
4 r.....rr..
5 .........t
6 ......f...
7 .........t
8 ......r..t
9 ..........
0 ..........
1 ........f.
2 ..........
3 r....h....

*** Darwin 14x10 ***
Turn = 0.
  0123456789
0 .hf.......
1 h..h..t...
2 ......t...
3 ..........
4 ..f.....h.
5 ......h...
6 f.t..r....
7 .........r
8 ..........
9 t........h
0 ..........
1 ..t......h
2 ......r...
3 ..r.......

Turn = 7.
  0123456789
0 h.fh....h.
1 h.....t...
2 ......t...
3 ..........
4 ..f.......
5 .........h
6 f.t.......
7 ..........
8 ......r..r
9 r.h..r....
0 r.........
1 ..t.......
2 r.........
3 ..........

Turn = 14.
  0123456789
0 h.fh....h.
1 h.....t...
2 ......t...
3 r.........
4 ..f.......
5 .........h
6 ..........
7 .r........
8 rrr.......
9 r.........
0 r.t.......
1 ..t.......
2 ..........
3 .........r

*** Darwin 13x15 ***
Turn = 0.
  012345678901234
0 .....f.....h...
1 ..f..........r.
2 ............t..
3 ............h..
4 .......t.......
5 ..........t....
6 ..f............
7 .h...r.h.......
8 ......h....h...
9 ......r........
0 h.........t....
1 r.........t....
2 .......f.......

Turn = 8.
  012345678901234
0 .h...f.........
1 ..f............
2 ............t..
3 ...........tt..
4 .......t......r
5 .........rt....
6 ..f....rr......
7 h..............
8 ...............
9 r..............
0 .r........t....
1 ..r.......t....
2 .......f.......

*** Darwin 15x15 ***
Turn = 0.
  012345678901234
0 ..r..h..r...r..
1 .......f.......
2 .r.............
3 .........fr...t
4 ...............
5 .r.............
6 ...............
7 ...............
8 .........f.....
9 ..............h
0 ..r............
1 ......th.r.....
2 ...............
3 ...f...........
4 ..........r.fh.

Turn = 10.
  012345678901234
0 ..r....rr......
1 .......f.......
2 ...........r...
3 .r............t
4 ...............
5 .....r....rr...
6 ...............
7 ...............
8 .........f.....
9 .....h........h
0 ............r..
1 ......t........
2 ...............
3 ...f..........r
4 ...r........fh.

*** Darwin 14x14 ***
Turn = 0.
  01234567890123
0 ..............
1 ...f.......h..
2 .......r...r..
3 ..............
4 ....h.........
5 ..........t...
6 .........r....
7 ..h........r..
8 .........th...
9 ......ff.f.f..
0 ..............
1 ...........hf.
2 h.............
3 ..............

Turn = 6.
  01234567890123
0 ..........r...
1 ..hf...r......
2 .......r......
3 ..............
4 ..............
5 ..........t...
6 .........r....
7 ......r.......
8 ......r......h
9 ......ff......
0 ....h.........
1 .....h......f.
2 h.........rr..
3 ..............

Turn = 12.
  01234567890123
0 ..h.r....r...r
1 ...r..........
2 .r............
3 ..............
4 ..............
5 ..........t...
6 ..............
7 r.............
8 r............h
9 ......ff......
0 ..............
1 h...........f.
2 h.............
3 ....h.rr......

*** Darwin 12x10 ***
Turn = 0.
  0123456789
0 ...r..h..r
1 .....fh...
2 f....f....
3 ..........
4 ........f.
5 .ht..h....
6 .t...h....
7 f.........
8 ....t..tt.
9 ..........
0 ..........
1 ..r.ff....

Turn = 9.
  0123456789
0 .........r
1 ....rh..rr
2 f......r..
3 ..........
4 ........f.
5 .tt......h
6 .t........
7 f.........
8 ....t.htt.
9 ..........
0 ..........
1 ...rff....

*** Darwin 10x12 ***
Turn = 0.
  012345678901
0 r....r......
1 ....h.......
2 .t..........
3 t...f...f...
4 ..fh......r.
5 ...h......t.
6 ...f........
7 .......h...f
8 ............
9 t...f..rf...

Turn = 9.
  012345678901
0 ...h...h.r..
1 h...........
2 .t..........
3 t...f...f...
4 ..f.........
5 ...h........
6 ...f........
7 ...........f
8 ............
9 ttt..rrr...r

Turn = 18.
  012345678901
0 ...h...h....
1 h.....rr....
2 .t..........
3 t...f...f...
4 ..f.........
5 ...h........
6 ...f.......r
7 ........r...
8 .......r....
9 tttt........

*** Darwin 15x12 ***
Turn = 0.
  012345678901
0 ........h...
1 ............
2 ............
3 ............
4 f..........h
5 ..h.........
6 ...t..r..h..
7 ....h.......
8 .......f.h..
9 ............
0 .t.....rt...
1 ..h.t.......
2 ...h.f......
3 .......h....
4 .......f...r

Turn = 7.
  012345678901
0 .h....r.....
1 ............
2 ............
3 ............
4 f.h.h..r....
5 ...t........
6 ...t........
7 .........h..
8 ..r......h..
9 ............
0 .t..t...t...
1 ....t.......
2 h....f......
3 ...........h
4 .....r.r....

Turn = 14.
  012345678901
0 h.h......r.r
1 ............
2 ............
3 ............
4 rh..........
5 r..t........
6 ...t........
7 .........h..
8 .........h..
9 ............
0 .t..t...t...
1 ....t.......
2 h....f......
3 ...........h
4 rr..........

*** Darwin 15x12 ***
Turn = 0.
  012345678901
0 .........f..
1 ......f....f
2 .....th.h..f
3 ............
4 ..t........h
5 ............
6 .t..........
7 ..f.........
8 ..........f.
9 .......h....
0 ....r.r.....
1 ..tf........
2 ............
3 .......r.h..
4 ............

Turn = 10.
  012345678901
0 ....r....f..
1 ......f....f
2 .....t.....f
3 .........h.h
4 ..t.........
5 ............
6 .t........r.
7 r.f.......r.
8 ..........f.
9 ............
0 ............
1 ..tt........
2 ........h...
3 ............
4 r...........

*** Darwin 13x14 ***
Turn = 0.
  01234567890123
0 ....f...tr....
1 ....f.........
2 ......t.......
3 .....f........
4 r.............
5 ..............
6 .h.f..........
7 ......r.......
8 .f............
9 .r..r.....h...
0 ..............
1 ..h....tr.r...
2 h.f...........

Turn = 9.
  01234567890123
0 ...rr...t.r...
1 ....f.........
2 ...r..........
3 .....f...r....
4 .........r....
5 ..............
6 ...f..........
7 .h............
8 .f............
9 ..........r..r
0 ....r.........
1 ......tt......
2 rrr...........

Turn = 18.
  01234567890123
0 ..rr.r.......r
1 ...........r.r
2 ..............
3 ....rfr.......
4 ..............
5 ..............
6 r..fr.........
7 rh............
8 r.............
9 ..r...........
0 ..............
1 ......tt......
2 ......t.....r.

*** Darwin 15x13 ***
Turn = 0.
  0123456789012
0 .......hht..r
1 .............
2 ....rt.......
3 .............
4 .............
5 ..r.......t..
6 .............
7 ...r.......t.
8 .............
9 .......r.....
0 .....r.....h.
1 .....t..h....
2 ...f.........
3 .t...........
4 ...h......h..

Turn = 6.
  0123456789012
0 .......h.r...
1 ........r....
2 .........rr..
3 .............
4 .............
5 ........r.t..
6 .............
7 ........r..t.
8 ....rr....ht.
9 .r...........
0 .............
1 ...........r.
2 ...f.........
3 .t...........
4 h....r.......

Turn = 12.
  0123456789012
0 .......h...r.
1 .............
2 ............r
3 ...........r.
4 ....r.......r
5 r......r.....
6 .......r.....
7 ..........rr.
8 ..........r..
9 .............
0 .............
1 .............
2 ...f.........
3 .t...........
4 rr..rr......r

Turn = 18.
  0123456789012
0 r......h.....
1 .............
2 ...........r.
3 ........r...r
4 ........r....
5 rr...........
6 .r...........
7 .............
8 r...r......r.
9 .............
0 ....r........
1 ............r
2 ...f.....r...
3 .t...........
4 .t......r....

*** Darwin 11x11 ***
Turn = 0.
  01234567890
0 .....f..ff.
1 ...t.f.....
2 f....t..fh.
3 ...........
4 .....r.....
5 .hf........
6 .t.........
7 ...h..f....
8 ....r...r.r
9 ......r....
0 .........h.

Turn = 8.
  01234567890
0 .....t..ff.
1 ...t.t..r..
2 f..h.tr....
3 ...........
4 ...........
5 .tt........
6 .t.......h.
7 ......f..h.
8 ..r........
9 r..........
0 r...r......

Turn = 16.
  01234567890
0 .....t.r..r
1 .r...t....r
2 f...r.r....
3 ...........
4 ...........
5 .tt........
6 .t..r....h.
7 r.....f..h.
8 ...........
9 ......r....
0 r...r......
